﻿Build started 03.06.2014 22:27:00.
     1>Project "c:\Users\Даринка\documents\visual studio 2010\Projects\pact3lab1\pact3lab1\pact3lab1.vcxproj" on node 2 (build target(s)).
     1>InitializeBuildStatus:
         Creating "Debug\pact3lab1.unsuccessfulbuild" because "AlwaysCreate" was specified.
       ClCompile:
         C:\Program Files\Microsoft Visual Studio 10.0\VC\bin\CL.exe /c /ZI /nologo /W3 /WX- /Od /Oy- /D WIN32 /D _DEBUG /D _CONSOLE /D _UNICODE /D UNICODE /Gm /EHsc /RTC1 /MDd /GS /fp:precise /Zc:wchar_t /Zc:forScope /Fo"Debug\\" /Fd"Debug\vc100.pdb" /Gd /TP /analyze- /errorReport:prompt main.cpp
         main.cpp
       ManifestResourceCompile:
         All outputs are up-to-date.
       Link:
         C:\Program Files\Microsoft Visual Studio 10.0\VC\bin\link.exe /ERRORREPORT:PROMPT /OUT:"c:\users\даринка\documents\visual studio 2010\Projects\pact3lab1\Debug\pact3lab1.exe" /INCREMENTAL /NOLOGO kernel32.lib user32.lib gdi32.lib winspool.lib comdlg32.lib advapi32.lib shell32.lib ole32.lib oleaut32.lib uuid.lib odbc32.lib odbccp32.lib /MANIFEST /ManifestFile:"Debug\pact3lab1.exe.intermediate.manifest" /MANIFESTUAC:"level='asInvoker' uiAccess='false'" /DEBUG /PDB:"c:\users\даринка\documents\visual studio 2010\Projects\pact3lab1\Debug\pact3lab1.pdb" /SUBSYSTEM:CONSOLE /TLBID:1 /DYNAMICBASE /NXCOMPAT /IMPLIB:"c:\users\даринка\documents\visual studio 2010\Projects\pact3lab1\Debug\pact3lab1.lib" /MACHINE:X86 Debug\pact3lab1.exe.embed.manifest.res
         Debug\main.obj
       Manifest:
         C:\Program Files\Microsoft SDKs\Windows\v7.0A\bin\mt.exe /nologo /verbose /out:"Debug\pact3lab1.exe.embed.manifest" /manifest Debug\pact3lab1.exe.intermediate.manifest
         All outputs are up-to-date.
       LinkEmbedManifest:
         All outputs are up-to-date.
         pact3lab1.vcxproj -> c:\users\даринка\documents\visual studio 2010\Projects\pact3lab1\Debug\pact3lab1.exe
       FinalizeBuildStatus:
         Deleting file "Debug\pact3lab1.unsuccessfulbuild".
         Touching "Debug\pact3lab1.lastbuildstate".
     1>Done Building Project "c:\Users\Даринка\documents\visual studio 2010\Projects\pact3lab1\pact3lab1\pact3lab1.vcxproj" (build target(s)).

Build succeeded.

Time Elapsed 00:00:01.16
