﻿Build started 30.05.2014 18:11:50.
     1>Project "c:\Users\Даринка\documents\visual studio 2010\Projects\pract2lab5\pract2lab5\pract2lab5.vcxproj" on node 2 (build target(s)).
     1>InitializeBuildStatus:
         Creating "Debug\pract2lab5.unsuccessfulbuild" because "AlwaysCreate" was specified.
       ClCompile:
         C:\Program Files\Microsoft Visual Studio 10.0\VC\bin\CL.exe /c /ZI /nologo /W3 /WX- /Od /Oy- /D WIN32 /D _DEBUG /D _CONSOLE /D _UNICODE /D UNICODE /Gm /EHsc /RTC1 /MDd /GS /fp:precise /Zc:wchar_t /Zc:forScope /Fo"Debug\\" /Fd"Debug\vc100.pdb" /Gd /TP /analyze- /errorReport:prompt main.cpp
         main.cpp
     1>c:\users\даринка\documents\visual studio 2010\projects\pract2lab5\pract2lab5\main.cpp(11): warning C4244: 'argument' : conversion from 'time_t' to 'unsigned int', possible loss of data
       ManifestResourceCompile:
         All outputs are up-to-date.
       Link:
         C:\Program Files\Microsoft Visual Studio 10.0\VC\bin\link.exe /ERRORREPORT:PROMPT /OUT:"c:\users\даринка\documents\visual studio 2010\Projects\pract2lab5\Debug\pract2lab5.exe" /INCREMENTAL /NOLOGO kernel32.lib user32.lib gdi32.lib winspool.lib comdlg32.lib advapi32.lib shell32.lib ole32.lib oleaut32.lib uuid.lib odbc32.lib odbccp32.lib /MANIFEST /ManifestFile:"Debug\pract2lab5.exe.intermediate.manifest" /MANIFESTUAC:"level='asInvoker' uiAccess='false'" /DEBUG /PDB:"c:\users\даринка\documents\visual studio 2010\Projects\pract2lab5\Debug\pract2lab5.pdb" /SUBSYSTEM:CONSOLE /TLBID:1 /DYNAMICBASE /NXCOMPAT /IMPLIB:"c:\users\даринка\documents\visual studio 2010\Projects\pract2lab5\Debug\pract2lab5.lib" /MACHINE:X86 Debug\pract2lab5.exe.embed.manifest.res
         Debug\main.obj
       Manifest:
         C:\Program Files\Microsoft SDKs\Windows\v7.0A\bin\mt.exe /nologo /verbose /out:"Debug\pract2lab5.exe.embed.manifest" /manifest Debug\pract2lab5.exe.intermediate.manifest
         All outputs are up-to-date.
       LinkEmbedManifest:
         All outputs are up-to-date.
         pract2lab5.vcxproj -> c:\users\даринка\documents\visual studio 2010\Projects\pract2lab5\Debug\pract2lab5.exe
       FinalizeBuildStatus:
         Deleting file "Debug\pract2lab5.unsuccessfulbuild".
         Touching "Debug\pract2lab5.lastbuildstate".
     1>Done Building Project "c:\Users\Даринка\documents\visual studio 2010\Projects\pract2lab5\pract2lab5\pract2lab5.vcxproj" (build target(s)).

Build succeeded.

Time Elapsed 00:00:01.35
