^C:\USERS\ДАРИНКА\DOCUMENTS\VISUAL STUDIO 2010\PROJECTS\LABTREE\LABTREE\DEBUG\LABTREE.EXE.EMBED.MANIFEST.RES|C:\USERS\ДАРИНКА\DOCUMENTS\VISUAL STUDIO 2010\PROJECTS\LABTREE\LABTREE\DEBUG\MAIN.OBJ
C:\USERS\даринка\DOCUMENTS\VISUAL STUDIO 2010\PROJECTS\LABTREE\DEBUG\LABTREE.ILK
C:\USERS\даринка\DOCUMENTS\VISUAL STUDIO 2010\PROJECTS\LABTREE\DEBUG\LABTREE.EXE
C:\USERS\Даринка\DOCUMENTS\VISUAL STUDIO 2010\PROJECTS\LABTREE\LABTREE\DEBUG\LABTREE.EXE.INTERMEDIATE.MANIFEST
C:\USERS\ДАРИНКА\DOCUMENTS\VISUAL STUDIO 2010\PROJECTS\LABTREE\DEBUG\LABTREE.PDB
