^C:\USERS\ДАРИНКА\DOCUMENTS\VISUAL STUDIO 2010\PROJECTS\PRACT2CLAB4\PRACT2CLAB4\DEBUG\MAIN.OBJ|C:\USERS\ДАРИНКА\DOCUMENTS\VISUAL STUDIO 2010\PROJECTS\PRACT2CLAB4\PRACT2CLAB4\DEBUG\PRACT2CLAB4.EXE.EMBED.MANIFEST.RES
C:\USERS\Даринка\DOCUMENTS\VISUAL STUDIO 2010\PROJECTS\PRACT2CLAB4\DEBUG\PRACT2CLAB4.ILK
C:\USERS\Даринка\DOCUMENTS\VISUAL STUDIO 2010\PROJECTS\PRACT2CLAB4\DEBUG\PRACT2CLAB4.EXE
C:\USERS\Даринка\DOCUMENTS\VISUAL STUDIO 2010\PROJECTS\PRACT2CLAB4\PRACT2CLAB4\DEBUG\PRACT2CLAB4.EXE.INTERMEDIATE.MANIFEST
C:\USERS\ДАРИНКА\DOCUMENTS\VISUAL STUDIO 2010\PROJECTS\PRACT2CLAB4\DEBUG\PRACT2CLAB4.PDB
